{
    "schema_version": 3,
    "type": "handout",
    "handout": {
        "archived": false,
        "avatar": "",
        "controlledby": "",
        "inplayerjournals": "",
        "name": "Mudrunner Heritage",
        "tags": "[\"bfrd\",\"tov\",\"heritage\",\"lizardfolk\"]",
        "gmnotes": "",
        "notes": "%3Cp%20align%3D%22right%22%3E%3Ca%20href%3D%22https%3A//koboldpress.com/lizardfolk-lineage-and-heritages-for-the-tales-of-the-valiant-rpg/%22%3EOfficial%20Rules%3C/a%3E%3C/p%3E%3Cp%3EThese%20heritages%20are%20open%20to%20characters%20of%20any%20lineage%2C%20but%20lizardfolk%20founded%20them%20and%20their%20values%20lead%20these%20communities.%3C/p%3E%3Chr%3E%3Cp%3EMud%20runner%20heritage%20characters%20hail%20from%20lizardfolk%20communities%20%0Alocated%20in%20bogs%20and%20swamps.%20The%20mud%20runner%20lizardfolk%20are%20widely%20%0Aregarded%20as%20the%20descendants%20of%20the%20ancient%20lizardfolk%20empires.%20Their%20%0Aoral%20tradition%20stretches%20back%20millennia%20and%20their%20storytellers%20are%20%0Awelcome%20in%20all%20lizardfolk%20communities.%3C/p%3E%0A%0A%0A%0A%3Cp%3EFrom%20a%20young%20age%2C%20mud%20runners%20are%20taught%20to%20survive%20in%20their%20mucky%20%0Aenvironment.%20They%20learn%20how%20to%20identify%20dangerous%20flora%20and%20fauna%20well%20%0Abefore%20they%20reach%20maturity.%20Many%20of%20the%20skills%20they%20are%20taught%20are%20%0Aadaptations%20of%20behaviors%20they%20see%20in%20their%20local%20wildlife%2C%20such%20as%20%0Aalligators%20and%20constrictor%20snakes.%3C/p%3E%0A%0A%0A%0A%3Cp%3ESome%20mud%20runner%20communities%20habitually%20ambush%20swamp%20travelers%20and%20%0Apresent%20them%20as%20tribute%20to%20local%20dominant%20monsters%20such%20as%20black%20%0Adragons.%20While%20these%20settlements%20have%20earned%20the%20distrust%20of%20their%20%0Aneighbors%2C%20they%20represent%20only%20a%20small%20percentage%20of%20mud%20runners%20as%20a%20%0Awhole.%3C/p%3E%0A%0A%0A%0A%3Cp%3E%3Cstrong%3E%3Cem%3EDeath%20Roll.%20%3C/em%3E%3C/strong%3EWatching%20the%20reptiles%20of%20the%20%0Aswamp%20has%20taught%20you%20how%20to%20control%20your%20prey.%20When%20you%20have%20grappled%20a%20%0Acreature%2C%20you%20have%20advantage%20on%20unarmed%20strikes%20you%20make%20against%20it%2C%20and%0A%20your%20target%20has%20disadvantage%20on%20attacks%20it%20makes%20against%20you.%20When%20you%20%0Amove%20a%20grappled%20creature%2C%20your%20speed%20is%20halved%20only%20if%20the%20creature%20is%20%0Atwo%20or%20more%20sizes%20larger%20than%20you.%3C/p%3E%0A%0A%0A%0A%3Cp%3E%3Cstrong%3E%3Cem%3EPredator.%20%3C/em%3E%3C/strong%3EYou%20have%20proficiency%20in%20your%20choice%20of%20the%20Stealth%20or%20Survival%20skill.%3C/p%3E%0A%0A%0A%0A%3Cp%3E%3Cstrong%3E%3Cem%3ESpear%20Fisher.%20%3C/em%3E%3C/strong%3EWhen%20you%20use%20a%20spear%20to%20make%20a%20ranged%20attack%20against%20a%20target%20that%20is%20underwater%2C%20you%20can%20attack%20the%20creatures%20at%20long%20range.%3C/p%3E%0A%0A%0A%0A%3Cp%3E%3Cstrong%3E%3Cem%3ELanguages.%20%3C/em%3E%3C/strong%3EYou%20know%20Common%20and%20one%20other%20language.%20Most%20mud%20runners%20choose%20Draconic.%3C/p%3E%3Cp%3E%3C/p%3E"
    }
}