{
    "schema_version": 3,
    "type": "handout",
    "handout": {
        "archived": false,
        "avatar": "https://s3.amazonaws.com/files.d20.io/images/393863224/oQ0LQnAh_ZtaeDkqzHxHEQ/max.png?1716351702",
        "controlledby": "",
        "inplayerjournals": "",
        "name": "Stone Heritage",
        "tags": "[\"bfrd\",\"heritage\"]",
        "gmnotes": "",
        "notes": "%3Cp%20align%3D%22right%22%3E%3Ca%20href%3D%22https%3A//bfrd.net/heritages/stone-heritage%22%3EOfficial%20Rules%3C/a%3E%3Cbr%3E%3C/p%3E%3Cdiv%20class%3D%22userscript-clear%22%3E%3Cp%3E%3Cstrong%3E%3Cem%3EAncestral%20Arts.%20%3C/em%3E%3C/strong%3EYou%20gain%0A%20proficiency%20with%20Construction%20tools.%20Double%20your%20PB%20for%20any%20ability%20%0Acheck%20you%20make%20that%20uses%20them.%20You%20also%20gain%20proficiency%20with%20one%20type%20%0Aof%20martial%20weapon%20of%20your%20choice.%3C/p%3E%3Cp%3E%3Cstrong%3E%3Cem%3EEye%20for%20Quality.%20%3C/em%3E%3C/strong%3EWhen%0A%20you%20make%20an%20ability%20check%20related%20to%20the%20origin%20or%20purpose%20of%20an%20object%0A%20or%20structure%20made%20of%20metal%20or%20stone%2C%20you%20can%20add%20your%20PB%20to%20the%20roll.%20%0AIf%20you%20have%20proficiency%20in%20a%20relevant%20skill%20or%20tool%2C%20double%20your%20PB%20for%20%0Athe%20roll.%3C/p%3E%3Cp%3E%3Cstrong%3E%3Cem%3ELanguages.%20%3C/em%3E%3C/strong%3EYou%20know%20Common%20and%20one%20additional%20language%20of%20your%20choice.%20Typical%20stone%20heritage%20characters%20choose%20Dwarvish.%3C/p%3E%3C/div%3E%3Cp%3E%3C/p%3E"
    }
}