{
    "schema_version": 3,
    "type": "handout",
    "handout": {
        "archived": false,
        "avatar": "https://s3.amazonaws.com/files.d20.io/images/393863224/oQ0LQnAh_ZtaeDkqzHxHEQ/max.png?1716351702",
        "controlledby": "",
        "inplayerjournals": "",
        "name": "Beastkin Lineage",
        "tags": "[\"lineage\",\"bfrd\"]",
        "gmnotes": "",
        "notes": "%3Cdiv%20class%3D%22userscript-clear%22%3E%3Cp%20align%3D%22right%22%3E%3Ca%20href%3D%22https%3A//bfrd.net/lineages/beastkin-lineage%22%3EOfficial%20Rules%3C/a%3E%3Cbr%3E%3C/p%3E%3Cp%3EYour%20beastkin%20character%20has%20the%20following%20hereditary%20traits.%3C/p%3E%3Cp%3E%3Cstrong%3E%3Cem%3EAge.%3C/em%3E%3C/strong%3E%0A%20Beastkin%20mature%20far%20more%20quickly%20than%20most%20Humanoids%2C%20reaching%20%0Aadulthood%20within%205%20years.%20Though%20they%20may%20live%20nearly%20a%20century%2C%20some%20%0Abeastkin%20live%20only%2020%20or%2030%20years.%3C/p%3E%3Cp%3E%3Cstrong%3E%3Cem%3ESize.%20%3C/em%3E%3C/strong%3EYour%0A%20size%20is%20Medium%20or%20Small.%20Beastkin%20vary%20in%20weight%20and%20height%2C%20depending%20%0Aon%20their%20Beast%20characteristics.%20Most%20are%20between%204%20and%208%20feet%20tall%2C%20but%20%0Aif%20you%20choose%20to%20play%20a%20beastkin%20shorter%20than%204%20feet%2C%20you%20can%20choose%20%0Ayour%20size%20to%20be%20Small.%20Your%20weight%20varies%20depending%20on%20your%20Beast%20%0Acharacteristics.%20For%20example%2C%20a%20Medium%20beastkin%20descended%20from%20bears%20%0Alikely%20weighs%20upward%20of%20350%20pounds%2C%20while%20an%20avian%20beastkin%20of%20the%20same%20%0Asize%20is%20likely%20to%20weigh%20around%20100%20pounds.%3C/p%3E%3Cp%3E%3Cstrong%3E%3Cem%3ESpeed.%3C/em%3E%3C/strong%3E%20Your%20base%20walking%20speed%20is%2030%20feet.%3C/p%3E%3Cp%3E%3Cstrong%3E%3Cem%3EAnimal%20Instinct.%3C/em%3E%3C/strong%3E%20You%20have%20proficiency%20in%20either%20the%20Perception%20or%20Survival%20skill%20%28your%20choice%29.%3C/p%3E%3Cp%3E%3Cstrong%3E%3Cem%3ENatural%20Weapons.%3C/em%3E%3C/strong%3E%0A%20You%20have%20claws%2C%20horns%2C%20hooves%2C%20fangs%2C%20spines%2C%20or%20a%20similar%20adaptation%20%0Athat%20serves%20as%20a%20natural%20weapon.%20Work%20with%20your%20GM%20to%20determine%20what%20%0Atype%20of%20natural%20weapon%20you%20possess%20and%20decide%20whether%20it%20does%20%0Abludgeoning%2C%20piercing%2C%20or%20slashing%20damage.%20You%20can%20use%20your%20natural%20%0Aweapon%20to%20make%20unarmed%20strikes.%20When%20you%20hit%20with%20it%2C%20the%20strike%20deals%20%0A1d6%20+%20your%20STR%20or%20DEX%20modifier%20damage%20%28choose%20which%20during%20character%20%0Acreation%29%20of%20your%20chosen%20type%2C%20instead%20of%20the%20bludgeoning%20damage%20normal%20%0Afor%20an%20unarmed%20strike.%3C/p%3E%3Cp%3E%3Cstrong%3E%3Cem%3ENatural%20Adaptation.%3C/em%3E%3C/strong%3E%20You%20inherit%20one%20of%20the%20following%20traits%20determined%20by%20what%20kind%20of%20animal%20characteristics%20you%20want%20your%20character%20to%20have%3A%3C/p%3E%3Cul%3E%3Cli%3E%3Cstrong%3E%3Cem%3EAvian.%3C/em%3E%3C/strong%3E%0A%20Leathery%2C%20feathery%2C%20or%20gossamer%20wings%20sprout%20from%20your%20back%20or%20connect%20%0Ato%20your%20outstretched%20arms.%20You%20have%20a%20flying%20speed%20equal%20to%20your%20walking%0A%20speed.%20You%20can%u2019t%20fly%20while%20wearing%20medium%20or%20heavy%20armor.%20Carrying%20a%20%0Aheavy%20load%20or%20a%20creature%20of%20your%20size%20or%20larger%20while%20flying%20reduces%20%0Ayour%20speed%20by%20half.%3C/li%3E%3Cli%3E%3Cstrong%3E%3Cem%3EAgile%3C/em%3E%3C/strong%3E.%20Sharp%20%0Aclaws%2C%20cloven%20hooves%2C%20robust%20limbs%2C%20reversed%20joints%2C%20or%20suction%20pads%20on%20%0Ayour%20hands%20and%20feet%20allow%20you%20to%20scrabble%20up%20trees%2C%20rock%20faces%2C%20and%20%0Auneven%20surfaces%20with%20ease.%20You%20have%20a%20climbing%20speed%20equal%20to%20your%20%0Awalking%20speed.%20In%20addition%2C%20you%20have%20advantage%20on%20saves%20made%20to%20avoid%20%0Abeing%20knocked%20prone.%3C/li%3E%3Cli%3E%3Cstrong%3E%3Cem%3EAquatic.%3C/em%3E%3C/strong%3E%20Oily%20%0Afur%2C%20scales%2C%20fins%2C%20webbed%20hands%20and%20feet%2C%20or%20long%2C%20gangly%20limbs%20are%20%0Acommon%20for%20your%20people.%20You%20have%20a%20swimming%20speed%20equal%20to%20your%20walking%20%0Aspeed.%20You%20can%20hold%20your%20breath%20for%20up%20to%2020%20minutes.%3C/li%3E%3Cli%3E%3Cstrong%3E%3Cem%3ESturdy.%3C/em%3E%3C/strong%3E%0A%20Powerful%20limbs%2C%20fat%20reserves%2C%20or%20a%20thick%20hide%20allow%20you%20to%20endure%20harm%20%0Aand%20accomplish%20feats%20of%20remarkable%20athleticism.%20When%20you%20aren%u2019t%20wearing%20%0Aarmor%2C%20you%20have%20a%20natural%20AC%20of%2013%20+%20your%20DEX%20modifier.%20In%20addition%2C%20you%0A%20count%20as%20one%20size%20larger%20when%20determining%20your%20carrying%20capacity%20and%20%0Athe%20weight%20you%20can%20push%20or%20drag.%3C/li%3E%3C/ul%3E%3C/div%3E%3Cp%3E%3C/p%3E"
    }
}