{
    "schema_version": 3,
    "type": "handout",
    "handout": {
        "archived": false,
        "avatar": "",
        "controlledby": "",
        "inplayerjournals": "all",
        "name": "Spell: Hold",
        "tags": "[\"bfrd\",\"spell\",\"2nd-circle\",\"arcane\",\"divine\",\"wyrd\",\"enchantment\",\"concentration\"]",
        "gmnotes": "%3Cp%3E%7B%3Cbr%3E%26nbsp%3B%26nbsp%3B%26nbsp%3B%20%22spelllevel%22%3A%202%2C%3Cbr%3E%26nbsp%3B%26nbsp%3B%26nbsp%3B%20%22spellschool%22%3A%20%22enchantment%22%2C%3Cbr%3E%26nbsp%3B%26nbsp%3B%26nbsp%3B%20%22spellritual%22%3A%20false%2C%3Cbr%3E%26nbsp%3B%26nbsp%3B%26nbsp%3B%20%22spellcastingtime%22%3A%20%221%20action%22%2C%3Cbr%3E%26nbsp%3B%26nbsp%3B%26nbsp%3B%20%22spellrange%22%3A%20%2260%20ft.%22%2C%3Cbr%3E%26nbsp%3B%26nbsp%3B%26nbsp%3B%20%22spelltarget%22%3A%20%22a%20medium%20or%20smaller%20creature%20you%20can%20see%20within%20range%22%2C%3Cbr%3E%26nbsp%3B%26nbsp%3B%26nbsp%3B%20%22components%22%3A%20%7B%3Cbr%3E%26nbsp%3B%26nbsp%3B%26nbsp%3B%26nbsp%3B%26nbsp%3B%26nbsp%3B%26nbsp%3B%20%22spellcomp_v%22%3A%20true%2C%3Cbr%3E%26nbsp%3B%26nbsp%3B%26nbsp%3B%26nbsp%3B%26nbsp%3B%26nbsp%3B%26nbsp%3B%20%22spellcomp_s%22%3A%20true%2C%3Cbr%3E%26nbsp%3B%26nbsp%3B%26nbsp%3B%26nbsp%3B%26nbsp%3B%26nbsp%3B%26nbsp%3B%20%22spellcomp_m%22%3A%20true%2C%3Cbr%3E%26nbsp%3B%26nbsp%3B%26nbsp%3B%26nbsp%3B%26nbsp%3B%26nbsp%3B%26nbsp%3B%20%22spellcomp_materials%22%3A%20%22a%20small%2C%20straight%20piece%20of%20iron%22%3Cbr%3E%26nbsp%3B%26nbsp%3B%26nbsp%3B%20%7D%2C%3Cbr%3E%26nbsp%3B%26nbsp%3B%26nbsp%3B%20%22spellconcentration%22%3A%20false%2C%3Cbr%3E%26nbsp%3B%26nbsp%3B%26nbsp%3B%20%22spellduration%22%3A%20%22up%20to%201%20minute%22%2C%3Cbr%3E%26nbsp%3B%26nbsp%3B%26nbsp%3B%20%22output%22%3A%20%7B%3Cbr%3E%26nbsp%3B%26nbsp%3B%26nbsp%3B%26nbsp%3B%26nbsp%3B%26nbsp%3B%26nbsp%3B%20%22spellattack%22%3A%20%22None%22%2C%3Cbr%3E%26nbsp%3B%26nbsp%3B%26nbsp%3B%26nbsp%3B%26nbsp%3B%26nbsp%3B%26nbsp%3B%20%22spelldamage%22%3A%20%22%22%2C%3Cbr%3E%26nbsp%3B%26nbsp%3B%26nbsp%3B%26nbsp%3B%26nbsp%3B%26nbsp%3B%26nbsp%3B%20%22spelldamagetype%22%3A%20%22%22%2C%3Cbr%3E%26nbsp%3B%26nbsp%3B%26nbsp%3B%26nbsp%3B%26nbsp%3B%26nbsp%3B%26nbsp%3B%20%22spelldamage2%22%3A%20%22%22%2C%3Cbr%3E%26nbsp%3B%26nbsp%3B%26nbsp%3B%26nbsp%3B%26nbsp%3B%26nbsp%3B%26nbsp%3B%20%22spelldamagetype2%22%3A%20%22%22%2C%3Cbr%3E%26nbsp%3B%26nbsp%3B%26nbsp%3B%26nbsp%3B%26nbsp%3B%26nbsp%3B%26nbsp%3B%20%22spellhealing%22%3A%20%22%22%2C%3Cbr%3E%26nbsp%3B%26nbsp%3B%26nbsp%3B%26nbsp%3B%26nbsp%3B%26nbsp%3B%26nbsp%3B%20%22spelldmgmod%22%3A%20false%2C%3Cbr%3E%26nbsp%3B%26nbsp%3B%26nbsp%3B%26nbsp%3B%26nbsp%3B%26nbsp%3B%26nbsp%3B%20%22spellsave%22%3A%20%22WIS%22%2C%3Cbr%3E%26nbsp%3B%26nbsp%3B%26nbsp%3B%26nbsp%3B%26nbsp%3B%26nbsp%3B%26nbsp%3B%20%22spellsavesuccess%22%3A%20%22%22%2C%3Cbr%3E%26nbsp%3B%26nbsp%3B%26nbsp%3B%26nbsp%3B%26nbsp%3B%26nbsp%3B%26nbsp%3B%20%22spellhldie%22%3A%20%22%22%2C%3Cbr%3E%26nbsp%3B%26nbsp%3B%26nbsp%3B%26nbsp%3B%26nbsp%3B%26nbsp%3B%26nbsp%3B%20%22spellhldietype%22%3A%20%22%22%2C%3Cbr%3E%26nbsp%3B%26nbsp%3B%26nbsp%3B%26nbsp%3B%26nbsp%3B%26nbsp%3B%26nbsp%3B%20%22spellhlbonus%22%3A%20%22%22%2C%3Cbr%3E%26nbsp%3B%26nbsp%3B%26nbsp%3B%26nbsp%3B%26nbsp%3B%26nbsp%3B%26nbsp%3B%20%22includedesc%22%3A%20%22off%22%2C%3Cbr%3E%26nbsp%3B%26nbsp%3B%26nbsp%3B%26nbsp%3B%26nbsp%3B%26nbsp%3B%26nbsp%3B%20%22spelldescription%22%3A%20%22Choose%20a%20Medium%20or%20smaller%20creature%20that%20you%20can%20see%20within%20range.%20The%20%0Atarget%20must%20succeed%20on%20a%20WIS%20save%20or%20be%20paralyzed%20for%20the%20duration.%20At%20%0Athe%20end%20of%20each%20of%20its%20turns%2C%20an%20affected%20target%20can%20repeat%20the%20WIS%20%0Asave%2C%20ending%20the%20effect%20on%20itself%20on%20a%20success.%20This%20spell%20has%20no%20effect%0A%20on%20Undead.%22%2C%3Cbr%3E%26nbsp%3B%26nbsp%3B%26nbsp%3B%26nbsp%3B%26nbsp%3B%26nbsp%3B%26nbsp%3B%20%22spellathigherlevels%22%3A%20%22When%20you%20cast%20this%20spell%20using%20a%20spell%20slot%20of%203rd%20circle%20or%20higher%2C%20you%0A%20can%20target%20one%20additional%20creature%20for%20each%20slot%20above%202nd.%20The%20%0Acreatures%20must%20be%20within%2030%20feet%20of%20each%20other%20when%20you%20target%20them.%22%3Cbr%3E%26nbsp%3B%26nbsp%3B%26nbsp%3B%20%7D%3Cbr%3E%7D%3Cbr%3E%3C/p%3E",
        "notes": "%3Cp%3E%3Cbr%3E%3C/p%3E%3Ctable%20class%3D%22userscript-table%20userscript-table-bordered%22%3E%3Ctbody%3E%3Ctr%3E%3Ctd%3EReplaces%20%3Ci%3E%3Ca%20href%3D%22https%3A//roll20.net/compendium/dnd5e/Spells%3AHold%2520Person/%22%3EHold%20Person%3C/a%3E%3C/i%3E%3Cbr%3E%3C/td%3E%3C/tr%3E%3C/tbody%3E%3C/table%3E%3Cp%3E%3Ci%3E2nd-Circle%20Arcane%2C%20Divine%2C%20and%20Wyrd%20%28Enchantment%29%3C/i%3E%3Cbr%3E%3Cb%3ECasting%20Time%3A%3C/b%3E%201%20action%3Cbr%3E%3Cb%3ERange%3A%3C/b%3E%2060%20feet%3Cbr%3E%3Cb%3EComponents%3A%3C/b%3E%20V%2C%20S%2C%20M%20%28a%20small%2C%20straight%20piece%20of%20iron%29%3Cbr%3E%3Cb%3EDuration%3A%3C/b%3E%20Concentration%2C%20up%20to%201%20minute%3C/p%3E%3Cp%3EChoose%20a%20Medium%20or%20smaller%20creature%20that%20you%20can%20see%20within%20range.%20The%20target%20must%20succeed%20on%20a%20WIS%20save%20or%20be%20%3Ca%20href%3D%22https%3A//roll20.net/compendium/dnd5e/Rules%3AConditions/%22%3E%3Ci%3Eparalyzed%3C/i%3E%3C/a%3E%20for%20the%20duration.%20At%20the%20end%20of%20each%20of%20its%20turns%2C%20an%20affected%20target%20can%20repeat%20the%20WIS%20save%2C%20ending%20the%20effect%20on%20itself%20on%20a%20success.%20This%20spell%20has%20no%20effect%20on%20Undead.%3C/p%3E%3Cp%3E%3Cb%3E%3Ci%3EAt%20Higher%20Circles.%3C/i%3E%3C/b%3E%20When%20you%20cast%20this%20spell%20using%20a%20spell%20slot%20of%203rd%20circle%20or%20higher%2C%20you%20can%20target%20one%20additional%20creature%20for%20each%20slot%20above%202nd.%20The%20creatures%20must%20be%20within%2030%20feet%20of%20each%20other%20when%20you%20target%20them.%3C/p%3E%3Cp%3E%3Cbr%3E%3C/p%3E%3Cp%20align%3D%22right%22%3E%3Cb%3ESource%3A%3C/b%3E%20%3Ca%20href%3D%22https%3A//bfrd.net%22%3E%3Ci%3EBFRD%3C/i%3E%3C/a%3E%3C/p%3E%3Cp%3E%3Cbr%3E%3C/p%3E"
    }
}